{
  "member-vnf-index-ref": "VyOS Router",
  "nsi_id": "a7b65a01-2a4c-4e42-8f03-fbfc83a8c1a1",
  "vdu-data": [
    {
      "vdu-id-ref": "vyos-VM",
      "ip-address": "192.168.137.48",
      "name": "testing-ai-agent-VyOS Router-vyos-VM-0"
    }
  ],
  "ns_name": "testing-ai-agent",
  "vnfs": [
    "26520c33-48a0-4c45-b97a-9f57e5bbfa88"
  ],
  "project_id": "30ec57f1-4e48-43ce-a0f1-b136d66f9f67",
  "scaling-group-descriptor": "vyos-VM_vdu_autoscale",
  "max-instances": 6,
  "min-instances": 1
}