{
  "_id": "26520c33-48a0-4c45-b97a-9f57e5bbfa88",
  "id": "26520c33-48a0-4c45-b97a-9f57e5bbfa88",
  "nsr-id-ref": "a7b65a01-2a4c-4e42-8f03-fbfc83a8c1a1",
  "member-vnf-index-ref": "VyOS Router",
  "additionalParamsForVnf": null,
  "created-time": 1630508654.9033926,
  "vnfd-ref": "ai-agents_ee-vnf",
  "vnfd-id": "28bd6d6a-119a-4edd-a72e-352693acb6cf",
  "vim-account-id": "70f571be-c3c7-4485-8948-24999e3d5abe",
  "vca-id": null,
  "vdur": [
    {
      "_id": "9a6ec4d3-a1a7-40ed-aacc-27511a197e10",
      "additionalParams": {
        "OSM": {
          "count_index": 0,
          "member_vnf_index": "VyOS Router",
          "ns_id": "a7b65a01-2a4c-4e42-8f03-fbfc83a8c1a1",
          "vdu": {
            "vyos-VM-0": {
              "count_index": 0,
              "interfaces": {
                "vdu-eth0": {
                  "name": "vdu-eth0"
                },
                "vdu-eth1": {
                  "name": "vdu-eth1"
                },
                "vdu-eth2": {
                  "name": "vdu-eth2"
                }
              },
              "vdu_id": "vyos-VM"
            }
          },
          "vdu_id": "vyos-VM",
          "vim_account_id": "70f571be-c3c7-4485-8948-24999e3d5abe",
          "vnf_id": "26520c33-48a0-4c45-b97a-9f57e5bbfa88",
          "vnfd_id": "28bd6d6a-119a-4edd-a72e-352693acb6cf",
          "vnfd_ref": "ai-agents_ee-vnf"
        }
      },
      "boot-data-drive": true,
      "cloud-init": "28bd6d6a-119a-4edd-a72e-352693acb6cf:file:vyos-userdata",
      "count-index": 0,
      "id": "9a6ec4d3-a1a7-40ed-aacc-27511a197e10",
      "interfaces": [
        {
          "external-connection-point-ref": "vnf-mgmt-ext",
          "internal-connection-point-ref": "vdu-eth0-int",
          "mgmt-interface": true,
          "mgmt-vnf": true,
          "name": "vdu-eth0",
          "ns-vld-id": "extnet",
          "type": "PARAVIRT",
          "compute_node": "pop2.localdomain",
          "ip-address": "192.168.137.48",
          "mac-address": "fa:16:3e:b2:ab:3d",
          "pci": null,
          "vlan": null
        },
        {
          "external-connection-point-ref": "vnf-internal-ext",
          "internal-connection-point-ref": "vdu-eth1-int",
          "name": "vdu-eth1",
          "ns-vld-id": "internal",
          "type": "PARAVIRT",
          "compute_node": "pop2.localdomain",
          "ip-address": "192.168.165.6",
          "mac-address": "fa:16:3e:47:65:cf",
          "pci": null,
          "vlan": null
        },
        {
          "external-connection-point-ref": "vnf-external-ext",
          "internal-connection-point-ref": "vdu-eth2-int",
          "name": "vdu-eth2",
          "ns-vld-id": "extnet",
          "type": "PARAVIRT",
          "compute_node": "pop2.localdomain",
          "ip-address": "192.168.137.57",
          "mac-address": "fa:16:3e:d1:7d:bd",
          "pci": null,
          "vlan": null
        }
      ],
      "internal-connection-point": [
        {
          "connection-point-id": "vdu-eth0-int",
          "id": "vdu-eth0-int",
          "name": "vdu-eth0-int"
        },
        {
          "connection-point-id": "vdu-eth1-int",
          "id": "vdu-eth1-int",
          "name": "vdu-eth1-int"
        },
        {
          "connection-point-id": "vdu-eth2-int",
          "id": "vdu-eth2-int",
          "name": "vdu-eth2-int"
        }
      ],
      "ip-address": "192.168.137.48",
      "ns-flavor-id": "0",
      "ns-image-id": "0",
      "vdu-id-ref": "vyos-VM",
      "vdu-name": "vyos-VM",
      "vim_info": {
        "vim:70f571be-c3c7-4485-8948-24999e3d5abe": {
          "interfaces": [
            {
              "vim_info": "{admin_state_up: true, allowed_address_pairs: [], 'binding:host_id': pop2.localdomain, 'binding:profile': {}, 'binding:vif_details': {datapath_type: system, ovs_hybrid_plug: true, port_filter: true}, 'binding:vif_type': ovs, 'binding:vnic_type': normal, created_at: '2021-09-01T15:04:19Z',\n  description: '', device_id: c511d440-d019-4111-a0e0-d73cb860dcf3, device_owner: 'compute:nova', extra_dhcp_opts: [], fixed_ips: [{ip_address: 192.168.137.48, subnet_id: de8ed4f0-9098-4dfc-8819-01a90ba1c54c}], id: a5f6795a-b01f-40d5-a630-bba5d0b221c4, mac_address: 'fa:16:3e:b2:ab:3d',\n  name: vdu-eth0, network_id: a2fabffb-0c93-47a4-8559-28bfc64836b1, port_security_enabled: true, project_id: 00723d3fa64c4d75b877adc834b3d72e, qos_policy_id: null, revision_number: 10, security_groups: [9d1936bb-448b-4c68-8cf4-962eacce4589], status: ACTIVE,\n  tags: [], tenant_id: 00723d3fa64c4d75b877adc834b3d72e, updated_at: '2021-09-01T15:04:29Z'}\n",
              "mac_address": "fa:16:3e:b2:ab:3d",
              "vim_net_id": "a2fabffb-0c93-47a4-8559-28bfc64836b1",
              "vim_interface_id": "a5f6795a-b01f-40d5-a630-bba5d0b221c4",
              "compute_node": "pop2.localdomain",
              "pci": null,
              "vlan": null,
              "ip_address": "192.168.137.48",
              "mgmt_vnf_interface": true,
              "mgmt_vdu_interface": true
            },
            {
              "vim_info": "{admin_state_up: true, allowed_address_pairs: [], 'binding:host_id': pop2.localdomain, 'binding:profile': {}, 'binding:vif_details': {datapath_type: system, ovs_hybrid_plug: true, port_filter: true}, 'binding:vif_type': ovs, 'binding:vnic_type': normal, created_at: '2021-09-01T15:04:20Z',\n  description: '', device_id: c511d440-d019-4111-a0e0-d73cb860dcf3, device_owner: 'compute:nova', extra_dhcp_opts: [], fixed_ips: [{ip_address: 192.168.165.6, subnet_id: 210de647-9234-4ecb-911b-bb9d1da1f356}], id: ec14ad32-4ca9-4859-85a5-a8709053fa9b, mac_address: 'fa:16:3e:47:65:cf',\n  name: vdu-eth1, network_id: dd127aef-c793-4b1c-9476-45eb39a9044e, port_security_enabled: true, project_id: 00723d3fa64c4d75b877adc834b3d72e, qos_policy_id: null, revision_number: 10, security_groups: [9d1936bb-448b-4c68-8cf4-962eacce4589], status: ACTIVE,\n  tags: [], tenant_id: 00723d3fa64c4d75b877adc834b3d72e, updated_at: '2021-09-01T15:04:29Z'}\n",
              "mac_address": "fa:16:3e:47:65:cf",
              "vim_net_id": "dd127aef-c793-4b1c-9476-45eb39a9044e",
              "vim_interface_id": "ec14ad32-4ca9-4859-85a5-a8709053fa9b",
              "compute_node": "pop2.localdomain",
              "pci": null,
              "vlan": null,
              "ip_address": "192.168.165.6"
            },
            {
              "vim_info": "{admin_state_up: true, allowed_address_pairs: [], 'binding:host_id': pop2.localdomain, 'binding:profile': {}, 'binding:vif_details': {datapath_type: system, ovs_hybrid_plug: true, port_filter: true}, 'binding:vif_type': ovs, 'binding:vnic_type': normal, created_at: '2021-09-01T15:04:21Z',\n  description: '', device_id: c511d440-d019-4111-a0e0-d73cb860dcf3, device_owner: 'compute:nova', extra_dhcp_opts: [], fixed_ips: [{ip_address: 192.168.137.57, subnet_id: de8ed4f0-9098-4dfc-8819-01a90ba1c54c}], id: 17d05fe2-9499-42d7-ab5f-dd2eb09249aa, mac_address: 'fa:16:3e:d1:7d:bd',\n  name: vdu-eth2, network_id: a2fabffb-0c93-47a4-8559-28bfc64836b1, port_security_enabled: true, project_id: 00723d3fa64c4d75b877adc834b3d72e, qos_policy_id: null, revision_number: 10, security_groups: [9d1936bb-448b-4c68-8cf4-962eacce4589], status: ACTIVE,\n  tags: [], tenant_id: 00723d3fa64c4d75b877adc834b3d72e, updated_at: '2021-09-01T15:04:30Z'}\n",
              "mac_address": "fa:16:3e:d1:7d:bd",
              "vim_net_id": "a2fabffb-0c93-47a4-8559-28bfc64836b1",
              "vim_interface_id": "17d05fe2-9499-42d7-ab5f-dd2eb09249aa",
              "compute_node": "pop2.localdomain",
              "pci": null,
              "vlan": null,
              "ip_address": "192.168.137.57"
            }
          ],
          "vim_details": "{'OS-DCF:diskConfig': MANUAL, 'OS-EXT-AZ:availability_zone': nova, 'OS-EXT-SRV-ATTR:host': pop2.localdomain, 'OS-EXT-SRV-ATTR:hypervisor_hostname': pop2.localdomain, 'OS-EXT-SRV-ATTR:instance_name': instance-000001e9, 'OS-EXT-STS:power_state': 1, 'OS-EXT-STS:task_state': null,\n  'OS-EXT-STS:vm_state': active, 'OS-SRV-USG:launched_at': '2021-09-01T15:04:32.000000', 'OS-SRV-USG:terminated_at': null, accessIPv4: '', accessIPv6: '', addresses: {extnet: [{'OS-EXT-IPS-MAC:mac_addr': 'fa:16:3e:b2:ab:3d', 'OS-EXT-IPS:type': fixed, addr: 192.168.137.48,\n        version: 4}, {'OS-EXT-IPS-MAC:mac_addr': 'fa:16:3e:d1:7d:bd', 'OS-EXT-IPS:type': fixed, addr: 192.168.137.57, version: 4}], testing-ai-agent-internal: [{'OS-EXT-IPS-MAC:mac_addr': 'fa:16:3e:47:65:cf', 'OS-EXT-IPS:type': fixed, addr: 192.168.165.6, version: 4}]},\n  config_drive: 'True', created: '2021-09-01T15:04:23Z', flavor: {id: 270c98b2-eb9a-497a-8204-77da0e169045, links: [{href: 'http://192.168.137.11:8774/00723d3fa64c4d75b877adc834b3d72e/flavors/270c98b2-eb9a-497a-8204-77da0e169045', rel: bookmark}]}, hostId: 288012c84198854edaab596405b5d5d3552e53371df85df0f5b627d1,\n  id: c511d440-d019-4111-a0e0-d73cb860dcf3, image: {id: 08017b7b-614d-4929-84b2-9a8501f10c9e, links: [{href: 'http://192.168.137.11:8774/00723d3fa64c4d75b877adc834b3d72e/images/08017b7b-614d-4929-84b2-9a8501f10c9e', rel: bookmark}]}, key_name: null, links: [\n    {href: 'http://192.168.137.11:8774/v2.1/00723d3fa64c4d75b877adc834b3d72e/servers/c511d440-d019-4111-a0e0-d73cb860dcf3', rel: self}, {href: 'http://192.168.137.11:8774/00723d3fa64c4d75b877adc834b3d72e/servers/c511d440-d019-4111-a0e0-d73cb860dcf3', rel: bookmark}],\n  metadata: {}, name: testing-ai-agent-VyOS Router-vyos-VM-0, 'os-extended-volumes:volumes_attached': [], progress: 0, security_groups: [{name: default}, {name: default}, {name: default}], status: ACTIVE, tenant_id: 00723d3fa64c4d75b877adc834b3d72e, updated: '2021-09-01T15:04:32Z',\n  user_id: dc05a0c130e84b249f6c68e0a73f73f6}\n",
          "vim_id": "c511d440-d019-4111-a0e0-d73cb860dcf3",
          "vim_status": "ACTIVE",
          "vim_name": "testing-ai-agent-VyOS Router-vyos-VM-0"
        }
      },
      "status": "ACTIVE",
      "vim-id": "c511d440-d019-4111-a0e0-d73cb860dcf3",
      "name": "testing-ai-agent-VyOS Router-vyos-VM-0"
    }
  ],
  "connection-point": [
    {
      "name": "vnf-mgmt-ext",
      "connection-point-id": "vdu-eth0-int",
      "connection-point-vdu-id": "vyos-VM",
      "id": "vnf-mgmt-ext"
    },
    {
      "name": "vnf-internal-ext",
      "connection-point-id": "vdu-eth1-int",
      "connection-point-vdu-id": "vyos-VM",
      "id": "vnf-internal-ext"
    },
    {
      "name": "vnf-external-ext",
      "connection-point-id": "vdu-eth2-int",
      "connection-point-vdu-id": "vyos-VM",
      "id": "vnf-external-ext"
    }
  ],
  "ip-address": "192.168.137.48",
  "_admin": {
    "created": 1630508654.903489,
    "modified": 1630508654.903489,
    "projects_read": [
      "30ec57f1-4e48-43ce-a0f1-b136d66f9f67"
    ],
    "projects_write": [
      "30ec57f1-4e48-43ce-a0f1-b136d66f9f67"
    ],
    "nsState": "INSTANTIATED"
  }
}
